------------------------------------------------------------------------
r935449 | scripty | 2009-03-05 07:52:22 +0000 (Thu, 05 Mar 2009) | 1 line

SVN_SILENT made messages (.desktop file)
------------------------------------------------------------------------
r936683 | dhaumann | 2009-03-08 11:46:27 +0000 (Sun, 08 Mar 2009) | 2 lines

backport: install buck_teeth.png for :-B etc.

------------------------------------------------------------------------
r937629 | scripty | 2009-03-10 07:44:33 +0000 (Tue, 10 Mar 2009) | 1 line

SVN_SILENT made messages (.desktop file)
------------------------------------------------------------------------
r939536 | scripty | 2009-03-15 07:52:01 +0000 (Sun, 15 Mar 2009) | 1 line

SVN_SILENT made messages (.desktop file)
------------------------------------------------------------------------
r939966 | scripty | 2009-03-16 07:56:30 +0000 (Mon, 16 Mar 2009) | 1 line

SVN_SILENT made messages (.desktop file)
------------------------------------------------------------------------
r942139 | scripty | 2009-03-21 08:17:49 +0000 (Sat, 21 Mar 2009) | 1 line

SVN_SILENT made messages (.desktop file)
------------------------------------------------------------------------
r942599 | scripty | 2009-03-22 07:44:09 +0000 (Sun, 22 Mar 2009) | 1 line

SVN_SILENT made messages (.desktop file)
------------------------------------------------------------------------
r943681 | scripty | 2009-03-24 08:20:58 +0000 (Tue, 24 Mar 2009) | 1 line

SVN_SILENT made messages (.desktop file)
------------------------------------------------------------------------
r944108 | reed | 2009-03-25 03:59:09 +0000 (Wed, 25 Mar 2009) | 1 line

needs OPENGL_INCLUDE_DIR with Qt/X11 on OSX
------------------------------------------------------------------------
r944176 | scripty | 2009-03-25 08:47:13 +0000 (Wed, 25 Mar 2009) | 1 line

SVN_SILENT made messages (.desktop file)
------------------------------------------------------------------------
