------------------------------------------------------------------------
r1005438 | scripty | 2009-08-01 03:07:04 +0000 (Sat, 01 Aug 2009) | 1 line

SVN_SILENT made messages (.desktop file)
------------------------------------------------------------------------
r1008772 | aacid | 2009-08-08 11:13:52 +0000 (Sat, 08 Aug 2009) | 2 lines

new hacks file from xscreensaver 5.08 adds lots of messages to translate

------------------------------------------------------------------------
r1010263 | scripty | 2009-08-12 03:18:56 +0000 (Wed, 12 Aug 2009) | 1 line

SVN_SILENT made messages (.desktop file)
------------------------------------------------------------------------
r1011227 | scripty | 2009-08-14 03:21:43 +0000 (Fri, 14 Aug 2009) | 1 line

SVN_SILENT made messages (.desktop file)
------------------------------------------------------------------------
r1011562 | scripty | 2009-08-15 03:06:08 +0000 (Sat, 15 Aug 2009) | 1 line

SVN_SILENT made messages (.desktop file)
------------------------------------------------------------------------
r1012791 | scripty | 2009-08-18 03:21:31 +0000 (Tue, 18 Aug 2009) | 1 line

SVN_SILENT made messages (.desktop file)
------------------------------------------------------------------------
