------------------------------------------------------------------------
r1235426 | scripty | 2011-06-06 03:44:56 +1200 (Mon, 06 Jun 2011) | 1 line

SVN_SILENT made messages (.desktop file)
------------------------------------------------------------------------
